{"posts":[{"slug":"92596615","data":{"title":"OpenClaw 最佳实践手册目录拆读","date":"2026-04-02 10:00:00","slug":"92596615","tags":["OpenClaw","最佳实践","系列目录","AI Agent"],"summary":"基于《OpenClaw 最佳实践完全手册 v1.0.0》封面与目录页，整理一份适合快速浏览与系统学习的阅读导航。","updated":"","description":"基于《OpenClaw 最佳实践完全手册 v1.0.0》封面与目录页，整理一份适合快速浏览与系统学习的阅读导航。","cover":""}},{"slug":"e48d2fb4","data":{"title":"Claude Code 手册拆读目录","date":"2026-03-17 07:08:00","slug":"e48d2fb4","tags":["Claude Code","最佳实践","系列目录"],"summary":"按章节拆读《Claude Code 最佳实践手册》，附完整目录与阅读顺序。","updated":"","description":"按章节拆读《Claude Code 最佳实践手册》，附完整目录与阅读顺序。","cover":""}},{"slug":"1a519fdc","data":{"title":"Claude Code 手册拆读 29：速查卡与模板库","date":"2026-03-15 01:21:00","slug":"1a519fdc","tags":["Claude Code","最佳实践","附录"],"summary":"整理常用命令、模板与决策卡，作为日常协作时可以直接翻用的工具箱。","updated":"","description":"整理常用命令、模板与决策卡，作为日常协作时可以直接翻用的工具箱。","cover":""}},{"slug":"54635662","data":{"title":"Claude Code 手册拆读 28：安全边界与防护","date":"2026-03-10 20:37:00","slug":"54635662","tags":["Claude Code","最佳实践","高级实战"],"summary":"用权限、沙盒、规则和危险操作拦截，为效率型工具建立安全护栏。","updated":"","description":"用权限、沙盒、规则和危险操作拦截，为效率型工具建立安全护栏。","cover":""}},{"slug":"240c819a","data":{"title":"Claude Code 手册拆读 27：成本控制手册","date":"2026-03-07 09:27:00","slug":"240c819a","tags":["Claude Code","最佳实践","高级实战"],"summary":"在模型、上下文、并行策略和输出规模之间做取舍，把 token 花在最值钱的地方。","updated":"","description":"在模型、上下文、并行策略和输出规模之间做取舍，把 token 花在最值钱的地方。","cover":""}},{"slug":"6dbe8f65","data":{"title":"Claude Code 手册拆读 26：内容创作最佳实践","date":"2026-03-05 02:04:00","slug":"6dbe8f65","tags":["Claude Code","最佳实践","高级实战"],"summary":"把写作、翻译、批量文档生成也纳入 Claude Code 的 Skill 化与流水线能力。","updated":"","description":"把写作、翻译、批量文档生成也纳入 Claude Code 的 Skill 化与流水线能力。","cover":""}},{"slug":"393e0488","data":{"title":"Claude Code 手册拆读 25：调试与问题排查","date":"2026-03-02 14:19:00","slug":"393e0488","tags":["Claude Code","最佳实践","高级实战"],"summary":"按“稳定复现-隔离根因-针对修复-回归验证”的闭环做系统性调试。","updated":"","description":"按“稳定复现-隔离根因-针对修复-回归验证”的闭环做系统性调试。","cover":""}},{"slug":"45064301","data":{"title":"Claude Code 手册拆读 24：Worktree 隔离实战","date":"2026-02-26 10:29:00","slug":"45064301","tags":["Claude Code","最佳实践","多 Agent 协作"],"summary":"用 Git worktree 为并行写入提供物理隔离，减少冲突并提升多方案试验能力。","updated":"","description":"用 Git worktree 为并行写入提供物理隔离，减少冲突并提升多方案试验能力。","cover":""}}],"total":135,"hasMore":true,"nextOffset":8,"page":1,"totalPages":17}