{"posts":[{"slug":"7b268071","data":{"title":"string_api","date":"2022-06-16 23:33:00","slug":"7b268071","tags":["js面试","string_api"],"summary":"面试官：JavaScript字符串的常用方法有哪些？ 我们也可将字符串常用的操作方法归纳为增、删、改、查，需要知道字符串的特点是一旦创建了，就不可变","cover":"/legacy/img/picfive/wallfive (32).png","updated":"","description":"面试官：JavaScript字符串的常用方法有哪些？ 我们也可将字符串常用的操作方法归纳为增、删、改、查，需要知道字符串的特点是一旦创建了，就不可变"}},{"slug":"7f6cf7b0","data":{"title":"single_sign","date":"2022-06-16 23:13:00","slug":"7f6cf7b0","tags":["js面试","single_sign"],"summary":"面试官：什么是单点登录？如何实现？ 单点登录（Single Sign On），简称为 SSO，是目前比较流行的企业业务整合的解决方案之一","cover":"/legacy/img/picfive/wallfive (29).png","updated":"","description":"面试官：什么是单点登录？如何实现？ 单点登录（Single Sign On），简称为 SSO，是目前比较流行的企业业务整合的解决方案之一"}},{"slug":"af55d3","data":{"title":"scope","date":"2022-06-16 23:03:00","slug":"af55d3","tags":["js面试","scope"],"summary":"面试官：说说你对作用域链的理解 作用域，即变量（变量作用域又称上下文）和函数生效（能被访问）的区域或集合","cover":"/legacy/img/picfive/wallfive (26).png","updated":"","description":"面试官：说说你对作用域链的理解 作用域，即变量（变量作用域又称上下文）和函数生效（能被访问）的区域或集合"}},{"slug":"c59bd5c1","data":{"title":"security","date":"2022-06-16 23:03:00","slug":"c59bd5c1","tags":["js面试","security"],"summary":"面试官：web常见的攻击方式有哪些？如何防御？ Web攻击（WebAttack）是针对用户上网行为或网站服务器等设备进行攻击的行为","cover":"/legacy/img/picfive/wallfive (27).png","updated":"","description":"面试官：web常见的攻击方式有哪些？如何防御？ Web攻击（WebAttack）是针对用户上网行为或网站服务器等设备进行攻击的行为"}},{"slug":"f9f4b1e7","data":{"title":"regexp","date":"2022-06-16 21:03:00","slug":"f9f4b1e7","tags":["js面试","regexp"],"summary":"面试官：说说你对正则表达式的理解？应用场景？ 正则表达式是一种用来匹配字符串的强有力的武器","cover":"/legacy/img/picfive/wallfive (25).png","updated":"","description":"面试官：说说你对正则表达式的理解？应用场景？ 正则表达式是一种用来匹配字符串的强有力的武器"}},{"slug":"a36a5ae4","data":{"title":"prototype","date":"2022-06-16 20:56:00","slug":"a36a5ae4","tags":["js面试","prototype"],"summary":"面试官：JavaScript原型，原型链 ? 有什么特点？ JavaScript 常被描述为一种基于原型的语言——每个对象拥有一个原型对象","cover":"/legacy/img/picfive/wallfive (23).png","updated":"","description":"面试官：JavaScript原型，原型链 ? 有什么特点？ JavaScript 常被描述为一种基于原型的语言——每个对象拥有一个原型对象"}},{"slug":"97b76847","data":{"title":"下拉刷新","date":"2022-06-16 20:03:00","slug":"97b76847","tags":["js面试","下拉刷新"],"summary":"面试官：如何实现上拉加载，下拉刷新？ 下拉刷新和上拉加载这两种交互方式通常出现在移动端中","cover":"/legacy/img/picfive/wallfive (24).png","updated":"","description":"面试官：如何实现上拉加载，下拉刷新？ 下拉刷新和上拉加载这两种交互方式通常出现在移动端中"}},{"slug":"6be34445","data":{"title":"new","date":"2022-06-16 18:56:00","slug":"6be34445","tags":["js面试","new"],"summary":"面试官：说说new操作符具体干了什么？ 在 JavaScript 中， new 操作符用于创建一个给定构造函数的实例对象","cover":"/legacy/img/picfive/wallfive (21).png","updated":"","description":"面试官：说说new操作符具体干了什么？ 在 JavaScript 中， new 操作符用于创建一个给定构造函数的实例对象"}}],"total":135,"hasMore":true,"nextOffset":80,"page":10,"totalPages":17}