{"posts":[{"slug":"171d1754","data":{"title":"memory_leak","date":"2022-06-16 16:56:00","slug":"171d1754","tags":["js面试","memory_leak"],"summary":"面试官：说说 JavaScript 中内存泄漏的几种情况？ 内存泄漏（Memory leak）是在计算机科学中，由于疏忽或错误造成程序未能释放已经不再使用的内存","cover":"/legacy/img/picfive/wallfive (20).png","updated":"","description":"面试官：说说 JavaScript 中内存泄漏的几种情况？ 内存泄漏（Memory leak）是在计算机科学中，由于疏忽或错误造成程序未能释放已经不再使用的内存"}},{"slug":"e0c98e7a","data":{"title":"loss_accuracy","date":"2022-06-16 16:46:00","slug":"e0c98e7a","tags":["js面试","loss_accuracy"],"summary":"面试官：说说 Javascript 数字精度丢失的问题，如何解决？ 一个经典的面试题","cover":"/legacy/img/picfive/wallfive (22).png","updated":"","description":"面试官：说说 Javascript 数字精度丢失的问题，如何解决？ 一个经典的面试题"}},{"slug":"958c57b5","data":{"title":"js_data_structure","date":"2022-06-16 13:46:00","slug":"958c57b5","tags":["js面试","js_data_structure"],"summary":"面试官：说说你了解的js数据结构？ 什么是数据结构？","cover":"/legacy/img/picfive/wallfive (18).png","updated":"","description":"面试官：说说你了解的js数据结构？ 什么是数据结构？"}},{"slug":"a0245a2a","data":{"title":"inherit","date":"2022-06-16 13:46:00","slug":"a0245a2a","tags":["js面试","inherit"],"summary":"面试官：Javascript如何实现继承？ 继承（inheritance）是面向对象软件技术当中的一个概念。","cover":"/legacy/img/picfive/wallfive (17).png","updated":"","description":"面试官：Javascript如何实现继承？ 继承（inheritance）是面向对象软件技术当中的一个概念。"}},{"slug":"adb78c8a","data":{"title":"function_cache","date":"2022-06-16 10:46:00","slug":"adb78c8a","tags":["js面试","function_cache"],"summary":"面试官：Javascript中如何实现函数缓存？函数缓存有哪些应用场景？ 函数缓存，就是将函数运算过的结果进行缓存","cover":"/legacy/img/picfive/wallfive (15).png","updated":"","description":"面试官：Javascript中如何实现函数缓存？函数缓存有哪些应用场景？ 函数缓存，就是将函数运算过的结果进行缓存"}},{"slug":"eab5cc79","data":{"title":"functional_programming","date":"2022-06-16 10:46:00","slug":"eab5cc79","tags":["js面试","functional_programming"],"summary":"面试官：说说你对函数式编程的理解？优缺点？ 函数式编程是一种”编程范式”（programming paradigm），一种编写程序的方法论","cover":"/legacy/img/picfive/wallfive (16).png","updated":"","description":"面试官：说说你对函数式编程的理解？优缺点？ 函数式编程是一种”编程范式”（programming paradigm），一种编写程序的方法论"}},{"slug":"574fecf1","data":{"title":"event_Model","date":"2022-06-16 10:36:00","slug":"574fecf1","tags":["js面试","event_Model"],"summary":"面试官：说说JavaScript中的事件模型 一、事件与事件流","cover":"/legacy/img/picfive/wallfive (15).png","updated":"","description":"面试官：说说JavaScript中的事件模型 一、事件与事件流"}},{"slug":"67902db1","data":{"title":"event_agent","date":"2022-06-16 09:36:00","slug":"67902db1","tags":["js面试","event_agent"],"summary":"面试官：解释下什么是事件代理？应用场景？ 事件代理，俗地来讲，就是把一个元素响应事件（ click 、 keydown ……）的函数委托到另一个元素","cover":"/legacy/img/picfive/wallfive (13).png","updated":"","description":"面试官：解释下什么是事件代理？应用场景？ 事件代理，俗地来讲，就是把一个元素响应事件（ click 、 keydown ……）的函数委托到另一个元素"}}],"total":137,"hasMore":true,"nextOffset":88,"page":11,"totalPages":18}