{"posts":[{"slug":"be945145","data":{"title":"event_loop","date":"2022-06-16 09:36:00","slug":"be945145","tags":["js面试","event_loop"],"summary":"面试官：说说你对事件循环的理解 首先， JavaScript 是一门单线程的语言，意味着同一时间内只能做一件事，但是这并不意味着单线程就是阻塞，而实现单线程非阻塞的方法就是事件循环","cover":"/legacy/img/picfive/wallfive (14).png","updated":"","description":"面试官：说说你对事件循环的理解 首先， JavaScript 是一门单线程的语言，意味着同一时间内只能做一件事，但是这并不意味着单线程就是阻塞，而实现单线程非阻塞的方法就是事件循环"}},{"slug":"59b49683","data":{"title":"Dom","date":"2022-06-16 09:26:00","slug":"59b49683","tags":["js面试","Dom"],"summary":"面试官：DOM常见的操作有哪些？ 文档对象模型 (DOM) 是 HTML 和 XML 文档的编程接口","cover":"/legacy/img/picfive/wallfive (12).png","updated":"","description":"面试官：DOM常见的操作有哪些？ 文档对象模型 (DOM) 是 HTML 和 XML 文档的编程接口"}},{"slug":"1be48ee","data":{"title":"debounce_throttle","date":"2022-06-16 08:26:00","slug":"1be48ee","tags":["js","防抖节流"],"summary":"面试官：什么是防抖和节流？有什么区别？如何实现？ 本质上是优化高频率执行代码的一种手段","cover":"/legacy/img/picfive/wallfive (11).png","updated":"","description":"面试官：什么是防抖和节流？有什么区别？如何实现？ 本质上是优化高频率执行代码的一种手段"}},{"slug":"37919ccb","data":{"title":"data_type","date":"2022-06-16 08:26:00","slug":"37919ccb","tags":["js","data_type"],"summary":"面试官：说说JavaScript中的数据类型？存储上的差别？ 在 JavaScript 中，我们可以分成两种类型：","cover":"/legacy/img/picfive/wallfive (10).png","updated":"","description":"面试官：说说JavaScript中的数据类型？存储上的差别？ 在 JavaScript 中，我们可以分成两种类型："}},{"slug":"a10ceeb7","data":{"title":"array","date":"2022-06-16 06:31:00","slug":"a10ceeb7","tags":["es6","js面试"],"summary":"面试官：数组新增了哪些扩展？ 一、扩展运算符的应用","cover":"/legacy/img/picfive/wallfive (9).png","updated":"","description":"面试官：数组新增了哪些扩展？ 一、扩展运算符的应用"}},{"slug":"4dbabb82","data":{"title":"copy","date":"2022-05-29 11:31:00","slug":"4dbabb82","tags":["copy","js面试"],"summary":"面试官：深拷贝浅拷贝的区别？如何实现一个深拷贝？ 一、数据类型存储","cover":"/legacy/img/picfive/wallfive (8).png","updated":"","description":"面试官：深拷贝浅拷贝的区别？如何实现一个深拷贝？ 一、数据类型存储"}},{"slug":"9e5f33b7","data":{"title":"continue_to_upload","date":"2022-05-28 23:31:00","slug":"9e5f33b7","tags":["continue_to_upload","js面试"],"summary":"面试官：大文件上传如何做断点续传？ 不管怎样简单的需求，在量级达到一定层次时，都会变得异常复杂","cover":"/legacy/img/picfive/wallfive (7).png","updated":"","description":"面试官：大文件上传如何做断点续传？ 不管怎样简单的需求，在量级达到一定层次时，都会变得异常复杂"}},{"slug":"f3d3ee5b","data":{"title":"BOM","date":"2022-05-25 21:31:00","slug":"f3d3ee5b","tags":["BOM","js面试"],"summary":"面试官：说说你对BOM的理解，常见的BOM对象你了解哪些？ BOM (Browser Object Model)，浏览器对象模型，提供了独立于内容与浏览器窗口进行交互的对象","cover":"/legacy/img/picfive/wallfive (2).png","updated":"","description":"面试官：说说你对BOM的理解，常见的BOM对象你了解哪些？ BOM (Browser Object Model)，浏览器对象模型，提供了独立于内容与浏览器窗口进行交互的对象"}}],"total":135,"hasMore":true,"nextOffset":96,"page":12,"totalPages":17}