{"posts":[{"slug":"10bf1714","data":{"title":"context_stack","date":"2022-05-24 23:31:00","slug":"10bf1714","tags":["context_stack","js面试"],"summary":"面试官：JavaScript 中执行上下文和执行栈是什么？ 简单的来说，执行上下文是一种对 Javascript 代码执行环境的抽象概念，也就是说只要有 Javascript 代码运行，那么它就一定是运行在执行上下文中","cover":"/legacy/img/picfive/wallfive (6).png","updated":"","description":"面试官：JavaScript 中执行上下文和执行栈是什么？ 简单的来说，执行上下文是一种对 Javascript 代码执行环境的抽象概念，也就是说只要有 Javascript 代码运行，那么它就一定是运行在执行上下文中"}},{"slug":"48078dd1","data":{"title":"closure","date":"2022-05-24 09:31:00","slug":"48078dd1","tags":["closure","js面试"],"summary":"面试官：说说你对闭包的理解？闭包使用场景 一个函数和对其周围状态（lexical environment，词法环境）的引用捆绑在一起（或者说函数被引用包围），这样的组合就是闭包（closure）","cover":"/legacy/img/picfive/wallfive (4).png","updated":"","description":"面试官：说说你对闭包的理解？闭包使用场景 一个函数和对其周围状态（lexical environment，词法环境）的引用捆绑在一起（或者说函数被引用包围），这样的组合就是闭包（closure）"}},{"slug":"41476be7","data":{"title":"cache","date":"2022-05-22 23:40:00","slug":"41476be7","tags":["cache","js面试"],"summary":"面试官：Javascript 本地存储的方式有哪些？区别及应用场景？ javaScript 本地缓存的方法我们主要讲述以下四种：","cover":"/legacy/img/picfive/wallfive (3).png","updated":"","description":"面试官：Javascript 本地存储的方式有哪些？区别及应用场景？ javaScript 本地缓存的方法我们主要讲述以下四种："}},{"slug":"17a85756","data":{"title":"bind_call_apply","date":"2022-05-22 21:31:00","slug":"17a85756","tags":["bind_call_apply","js面试"],"summary":"面试官：bind、call、apply 区别？如何实现一个bind? call 、 apply 、 bind 作用是改变函数执行时的上下文，简而言之就是改变函数运行时的 this 指向","cover":"/legacy/img/picfive/wallfive (1).png","updated":"","description":"面试官：bind、call、apply 区别？如何实现一个bind? call 、 apply 、 bind 作用是改变函数执行时的上下文，简而言之就是改变函数运行时的 this 指向"}},{"slug":"ced3960e","data":{"title":"array_api","date":"2022-05-22 06:31:00","slug":"ced3960e","tags":["array_api","js面试"],"summary":"面试官：数组的常用方法有哪些？ 数组基本操作可以归纳为 增、删、改、查，需要留意的是哪些方法会对原数组产生影响，哪些方法不会","cover":"/legacy/img/picsix/wallsix (8).png","updated":"","description":"面试官：数组的常用方法有哪些？ 数组基本操作可以归纳为 增、删、改、查，需要留意的是哪些方法会对原数组产生影响，哪些方法不会"}},{"slug":"50cfbdee","data":{"title":"ajax2","date":"2022-05-20 22:31:00","slug":"50cfbdee","tags":["ajax2","ajax"],"summary":"面试官：ajax原理是什么？如何实现？ AJAX 全称(Async Javascript and XML)","cover":"/legacy/img/picsix/wallsix (6).png","updated":"","description":"面试官：ajax原理是什么？如何实现？ AJAX 全称(Async Javascript and XML)"}},{"slug":"93ae9a14","data":{"title":"== 和 ===","date":"2022-05-20 11:31:00","slug":"93ae9a14","tags":["== 和 ===","js面试"],"summary":"面试官：== 和 ===区别，分别在什么情况使用 等于操作符用两个等于号（ == ）表示，如果操作数相等，则会返回 true","cover":"/legacy/img/picsix/wallsix (5).png","updated":"","description":"面试官：== 和 ===区别，分别在什么情况使用 等于操作符用两个等于号（ == ）表示，如果操作数相等，则会返回 true"}},{"slug":"8d5284dc","data":{"title":"animation","date":"2022-05-19 20:31:00","slug":"8d5284dc","tags":["css","css面试"],"summary":"面试官：css3动画有哪些？ CSS动画（CSS Animations）是为层叠样式表建议的允许可扩展标记语言（XML）元素使用CSS的动画的模块","cover":"/legacy/img/1.png","updated":"","description":"面试官：css3动画有哪些？ CSS动画（CSS Animations）是为层叠样式表建议的允许可扩展标记语言（XML）元素使用CSS的动画的模块"}}],"total":135,"hasMore":true,"nextOffset":104,"page":13,"totalPages":17}