{"posts":[{"slug":"9370d73f","data":{"title":"visual_scrolling","date":"2022-05-18 23:31:00","slug":"9370d73f","tags":["visual_scrolling","css面试"],"summary":"面试官：如何使用css完成视差滚动效果? 视差滚动（Parallax Scrolling）是指多层背景以不同的速度移动，形成立体的运动效果，带来非常出色的视觉体验","cover":"/legacy/img/picsix/wallsix (4).png","updated":"","description":"面试官：如何使用css完成视差滚动效果? 视差滚动（Parallax Scrolling）是指多层背景以不同的速度移动，形成立体的运动效果，带来非常出色的视觉体验"}},{"slug":"f7feebc7","data":{"title":"single_multi_line","date":"2022-05-18 21:31:00","slug":"f7feebc7","tags":["single_multi_line","css面试"],"summary":"面试官：如何实现单行／多行文本溢出的省略样式？ 在日常开发展示页面，如果一段文本的数量过长，受制于元素宽度的因素，有可能不能完全显示，为了提高用户的使用体验，这个时候就需要我们把溢出的文本显示成省略号","cover":"/legacy/img/picsix/wallsix (2).png","updated":"","description":"面试官：如何实现单行／多行文本溢出的省略样式？ 在日常开发展示页面，如果一段文本的数量过长，受制于元素宽度的因素，有可能不能完全显示，为了提高用户的使用体验，这个时候就需要我们把溢出的文本显示成省略号"}},{"slug":"df976d87","data":{"title":"triangle","date":"2022-05-17 21:31:00","slug":"df976d87","tags":["triangle","css面试"],"summary":"面试官：CSS如何画一个三角形？原理是什么？ 在前端开发的时候，我们有时候会需要用到一个三角形的形状，比如地址选择或者播放器里面播放按钮","cover":"/legacy/img/picsix/wallsix (3).png","updated":"","description":"面试官：CSS如何画一个三角形？原理是什么？ 在前端开发的时候，我们有时候会需要用到一个三角形的形状，比如地址选择或者播放器里面播放按钮"}},{"slug":"9692e25d","data":{"title":"selector","date":"2022-05-14 09:31:00","slug":"9692e25d","tags":["selector","css面试"],"summary":"面试官：css选择器有哪些？优先级？哪些属性可以继承？ CSS选择器是CSS规则的第一部分","cover":"/legacy/img/picsix/wallsix (1).png","updated":"","description":"面试官：css选择器有哪些？优先级？哪些属性可以继承？ CSS选择器是CSS规则的第一部分"}},{"slug":"2039e3ed","data":{"title":"sass_less_stylus","date":"2022-05-11 23:31:00","slug":"2039e3ed","tags":["sass_less_stylus","css面试"],"summary":"面试官：说说对Css预编语言的理解？有哪些区别? Css 作为一门标记性语言，语法相对简单，对使用者的要求较低，但同时也带来一些问题","cover":"/legacy/img/l (30).jpg","updated":"","description":"面试官：说说对Css预编语言的理解？有哪些区别? Css 作为一门标记性语言，语法相对简单，对使用者的要求较低，但同时也带来一些问题"}},{"slug":"203410a2","data":{"title":"responsive_layout","date":"2022-05-11 09:31:00","slug":"203410a2","tags":["responsive_layout","css面试"],"summary":"1.什么是响应式设计 响应式网站设计（Responsive Web design）是一种网络页面设计布局，页面的设计与开发应当根据用户行为以及设备环境(系统平台、屏幕尺寸、屏幕定向等)进行相应的响应和调整","cover":"/legacy/img/l (11).jpg","updated":"","description":"1.什么是响应式设计 响应式网站设计（Responsive Web design）是一种网络页面设计布局，页面的设计与开发应当根据用户行为以及设备环境(系统平台、屏幕尺寸、屏幕定向等)进行相应的响应和调整"}},{"slug":"30b90bc0","data":{"title":"less_12px","date":"2022-05-09 21:31:00","slug":"30b90bc0","tags":["less_12px","css面试"],"summary":"面试官：让Chrome支持小于12px 的文字方式有哪些？区别？ Chrome 中文版浏览器会默认设定页面的最小字号是12px，英文版没有限制","cover":"/legacy/img/wall2.png","updated":"","description":"面试官：让Chrome支持小于12px 的文字方式有哪些？区别？ Chrome 中文版浏览器会默认设定页面的最小字号是12px，英文版没有限制"}},{"slug":"78ca6597","data":{"title":"layout_painting","date":"2022-05-09 06:31:00","slug":"78ca6597","tags":["layout_painting","css面试"],"summary":"面试官：怎么理解回流跟重绘？什么场景下会触发？ 在 HTML 中，每个元素都可以理解成一个盒子，在浏览器解析过程中，会涉及到回流与重绘：","cover":"/legacy/img/wall1.png","updated":"","description":"面试官：怎么理解回流跟重绘？什么场景下会触发？ 在 HTML 中，每个元素都可以理解成一个盒子，在浏览器解析过程中，会涉及到回流与重绘："}}],"total":135,"hasMore":true,"nextOffset":112,"page":14,"totalPages":17}