{"posts":[{"slug":"3f038ede","data":{"title":"hide_attributes","date":"2022-05-05 21:31:00","slug":"3f038ede","tags":["hide_attributes","css面试"],"summary":"面试官：css中，有哪些方式可以隐藏页面元素？区别? 在平常的样式排版中，我们经常遇到将某个模块隐藏的场景","cover":"/legacy/img/62.png","updated":"","description":"面试官：css中，有哪些方式可以隐藏页面元素？区别? 在平常的样式排版中，我们经常遇到将某个模块隐藏的场景"}},{"slug":"2e20d937","data":{"title":"grid","date":"2022-05-05 19:31:00","slug":"2e20d937","tags":["grid","css面试"],"summary":"面试官：介绍一下grid网格布局 Grid 布局即网格布局，是一个二维的布局方式，由纵横相交的两组网格线形成的框架性布局结构，能够同时处理行与列","cover":"/legacy/img/56.png","updated":"","description":"面试官：介绍一下grid网格布局 Grid 布局即网格布局，是一个二维的布局方式，由纵横相交的两组网格线形成的框架性布局结构，能够同时处理行与列"}},{"slug":"28d88e6","data":{"title":"flexbox","date":"2022-05-05 11:31:00","slug":"28d88e6","tags":["flexbox","css面试"],"summary":"面试官：说说flexbox（弹性盒布局模型）,以及适用场景？ Flexible Box 简称 flex ，意为”弹性布局”，可以简便、完整、响应式地实现各种页面布局","cover":"/legacy/img/56.png","updated":"","description":"面试官：说说flexbox（弹性盒布局模型）,以及适用场景？ Flexible Box 简称 flex ，意为”弹性布局”，可以简便、完整、响应式地实现各种页面布局"}},{"slug":"14015a55","data":{"title":"dp_px_dpr_ppi","date":"2022-05-04 21:31:00","slug":"14015a55","tags":["dp_px_dpr_ppi","css面试"],"summary":"面试官：说说设备像素、css像素、设备独立像素、dpr、ppi 之间的区别？ 在 css 中我们通常使用px作为单位，在PC浏览器中 css 的1个像素都是对应着电脑屏幕的1个物理像素","cover":"/legacy/img/31.png","updated":"","description":"面试官：说说设备像素、css像素、设备独立像素、dpr、ppi 之间的区别？ 在 css 中我们通常使用px作为单位，在PC浏览器中 css 的1个像素都是对应着电脑屏幕的1个物理像素"}},{"slug":"7c942302","data":{"title":"css3_features","date":"2022-05-04 21:31:00","slug":"7c942302","tags":["css3_features","css面试"],"summary":"面试官：CSS3新增了哪些新特性？ css ，即层叠样式表（Cascading Style Sheets）的简称，是一种标记语言，由浏览器解释执行用来使页面变得更美观","cover":"/legacy/img/27.png","updated":"","description":"面试官：CSS3新增了哪些新特性？ css ，即层叠样式表（Cascading Style Sheets）的简称，是一种标记语言，由浏览器解释执行用来使页面变得更美观"}},{"slug":"92004154","data":{"title":"em_px_rem_vh_vw","date":"2022-05-04 21:31:00","slug":"92004154","tags":["em_px_rem_vh_vw","css面试"],"summary":"面试官：说说em/px/rem/vh/vw区别? 传统的项目开发中，我们只会用到 px 、 % 、 em 这几个单位，它可以适用于大部分的项目开发，且拥有比较良好的兼容性","cover":"/legacy/img/55.png","updated":"","description":"面试官：说说em/px/rem/vh/vw区别? 传统的项目开发中，我们只会用到 px 、 % 、 em 这几个单位，它可以适用于大部分的项目开发，且拥有比较良好的兼容性"}},{"slug":"b21f48b9","data":{"title":"css_performance","date":"2022-05-04 09:31:00","slug":"b21f48b9","tags":["css_performance","css面试"],"summary":"面试官：如果要做优化，CSS提高性能的方法有哪些？ 每一个网页都离不开 css ，但是很多人又认为， css 主要是用来完成页面布局的，像一些细节或者优化，就不需要怎么考虑，实际上这种想法是不正确的","cover":"/legacy/img/26.png","updated":"","description":"面试官：如果要做优化，CSS提高性能的方法有哪些？ 每一个网页都离不开 css ，但是很多人又认为， css 主要是用来完成页面布局的，像一些细节或者优化，就不需要怎么考虑，实际上这种想法是不正确的"}},{"slug":"9a0dce2d","data":{"title":"column_layout","date":"2022-05-03 11:31:00","slug":"9a0dce2d","tags":["column_layout","css面试"],"summary":"双栏布局非常常见，往往是以一个定宽栏和一个自适应的栏并排展示存在 实现思路也非常的简单：","cover":"/legacy/img/25.png","updated":"","description":"双栏布局非常常见，往往是以一个定宽栏和一个自适应的栏并排展示存在 实现思路也非常的简单："}}],"total":137,"hasMore":true,"nextOffset":120,"page":15,"totalPages":18}