{"posts":[{"slug":"40f0eb24","data":{"title":"center","date":"2022-05-03 10:31:00","slug":"40f0eb24","tags":["center","css面试"],"summary":"1.水平垂直居中的方法 1.元素水平垂直居中","cover":"/legacy/img/18.png","updated":"","description":"1.水平垂直居中的方法 1.元素水平垂直居中"}},{"slug":"8a9483a","data":{"title":"box","date":"2022-05-02 10:41:00","slug":"8a9483a","tags":["box","css面试"],"summary":"当对一个文档进行布局（layout）的时候，浏览器的渲染引擎会根据标准之一的 CSS 基础框盒模型（CSS basic box model），将所有元素表示为一个个矩形的盒子（box） 一个盒子由四个部分组成： content 、 padding 、 border 、 margin","cover":"/legacy/img/5.png","updated":"","description":"当对一个文档进行布局（layout）的时候，浏览器的渲染引擎会根据标准之一的 CSS 基础框盒模型（CSS basic box model），将所有元素表示为一个个矩形的盒子（box） 一个盒子由四个部分组成： content 、 padding 、 border 、 margin"}},{"slug":"c5a97815","data":{"title":"BFC","date":"2022-05-01 20:31:00","slug":"c5a97815","tags":["BTC","css面试"],"summary":"面试官：谈谈你对BFC的理解？ 我们在页面布局的时候，经常出现以下情况：","cover":"/legacy/img/2.png","updated":"","description":"面试官：谈谈你对BFC的理解？ 我们在页面布局的时候，经常出现以下情况："}},{"slug":"1e021099","data":{"title":"hots","date":"2022-03-21 20:14:35","slug":"1e021099","tags":[],"summary":"[hint]你的无畏，来自你的未知[/hint] 一、Trident内核代表产品Internet Explorer，又称其为IE内核。Trident（又称为MSHTML），是微软开发的一种排版引擎。使用Trident渲染引擎的浏览器包括：IE、傲游、世界之窗浏览器、Avant、腾讯TT、Netscape 8、NetCaptor、Sleipnir、GOSURF","cover":"https://s1.ax1x.com/2022/05/20/OOIiRJ.png","updated":"","description":"[hint]你的无畏，来自你的未知[/hint] 一、Trident内核代表产品Internet Explorer，又称其为IE内核。Trident（又称为MSHTML），是微软开发的一种排版引擎。使用Trident渲染引擎的浏览器包括：IE、傲游、世界之窗浏览器、Avant、腾讯TT、Netscape 8、NetCaptor、Sleipnir、GOSURF"}},{"slug":"b9f20a20","data":{"title":"webpack","date":"2022-03-21 20:13:00","slug":"b9f20a20","tags":[],"summary":"[tag]webpack介绍[/tag] 基于NodeJS实现的模块打包工具， 就是一个第三方包","cover":"https://s1.ax1x.com/2022/05/20/OO4DhQ.png","updated":"","description":"[tag]webpack介绍[/tag] 基于NodeJS实现的模块打包工具， 就是一个第三方包"}},{"slug":"c0add594","data":{"title":"vue","date":"2022-03-21 20:12:00","slug":"c0add594","tags":["vue"],"summary":"[tag]vue是什么[/tag] 官网介绍|地址： https://cn.vuejs.org/v2/guide/","cover":"https://s1.ax1x.com/2022/05/20/OO4vND.png","updated":"","description":"[tag]vue是什么[/tag] 官网介绍|地址： https://cn.vuejs.org/v2/guide/"}},{"slug":"d3b694df","data":{"title":"less","date":"2022-03-21 20:12:00","slug":"d3b694df","tags":["css"],"summary":"[tag type=”primary” outline]官方介绍[/tag] Less 是一门 CSS 预处理语言， 它扩充了 CSS 语言，增加了诸如变量、混合（mixin）、函数等功能，让 CSS 更易维护、方便制作主题、扩充。Less 可以运行在 Node 或浏览器端。","cover":"https://s1.ax1x.com/2022/05/20/OXmB9K.png","updated":"","description":"[tag type=”primary” outline]官方介绍[/tag] Less 是一门 CSS 预处理语言， 它扩充了 CSS 语言，增加了诸如变量、混合（mixin）、函数等功能，让 CSS 更易维护、方便制作主题、扩充。Less 可以运行在 Node 或浏览器端。"}},{"slug":"c5a6a264","data":{"title":"ajax","date":"2022-03-21 20:11:00","slug":"c5a6a264","tags":["node"],"summary":"[hint]Http协议是什么？[/hint] http协议（ hypertext transport protocol协议）【超文本传输协议】，详细规定了浏览器和万维网之间通信的的规则 ； [tag type=”primary” outline]常见状态码&含义[/tag]","cover":"https://s1.ax1x.com/2022/05/20/OOInIO.png","updated":"","description":"[hint]Http协议是什么？[/hint] http协议（ hypertext transport protocol协议）【超文本传输协议】，详细规定了浏览器和万维网之间通信的的规则 ； [tag type=”primary” outline]常见状态码&含义[/tag]"}}],"total":137,"hasMore":true,"nextOffset":128,"page":16,"totalPages":18}