{"posts":[{"slug":"97a9ab5c","data":{"title":"my notes","date":"2022-02-21 20:13:00","slug":"97a9ab5c","tags":[],"summary":"持续更新，记录学习中的历程，愿诸位更优秀 选用woli，记录学习中的笔记，更方便，效率更高","cover":"https://s1.ax1x.com/2022/05/20/OO4DhQ.png","updated":"","description":"持续更新，记录学习中的历程，愿诸位更优秀 选用woli，记录学习中的笔记，更方便，效率更高"}},{"slug":"857fe845","data":{"title":"node","date":"2022-01-10 21:18:00","slug":"857fe845","tags":["node"],"summary":"node.js是什么？ node.js不是一门语言，不是库，不是框架，node.js是一个运行javaScript运行时的环境。","cover":"https://s1.ax1x.com/2022/05/20/OO5FDP.png","updated":"","description":"node.js是什么？ node.js不是一门语言，不是库，不是框架，node.js是一个运行javaScript运行时的环境。"}},{"slug":"78cea6d8","data":{"title":"css","date":"2022-01-10 20:31:00","slug":"78cea6d8","tags":["css"],"summary":"[tag type=”warn”]flex[/tag] [collapse title=”flex布局”] [/collapse] [hint]下方flex详解—作者：阮一峰[/hint] https://www.ruanyifeng.com/blog/2015/07/flex-grammar.html","cover":"https://s1.ax1x.com/2022/05/20/OOImdK.png","updated":"","description":"[tag type=”warn”]flex[/tag] [collapse title=”flex布局”] [/collapse] [hint]下方flex详解—作者：阮一峰[/hint] https://www.ruanyifeng.com/blog/2015/07/flex-grammar.html"}},{"slug":"84a91e69","data":{"title":"星星落落","date":"2021-07-08 20:30:00","slug":"84a91e69","tags":["星星"],"summary":"与其说是一种记录，不如说是一种提醒手段，提醒自己时时刻刻要记得温柔和第一次见面时的憧憬。我也不知道这个页面多久才能正式投入使用，但我希望这个清单上的所有事能在有生之年全部完成。这是<a href=\"#\" target=\"_blank\">@六七 与 @YY 相爱的N件事。","cover":"https://s1.ax1x.com/2022/05/20/OOIQRH.png","updated":"","description":"与其说是一种记录，不如说是一种提醒手段，提醒自己时时刻刻要记得温柔和第一次见面时的憧憬。我也不知道这个页面多久才能正式投入使用，但我希望这个清单上的所有事能在有生之年全部完成。这是<a href=\"#\" target=\"_blank\">@六七 与 @YY 相爱的N件事。"}},{"slug":"42b82995","data":{"title":"Es6","date":"2021-07-02 20:17:00","slug":"42b82995","tags":["js"],"summary":"var chakhsu = function (r) { function t() { return b[Math.floor(Math.random() * b.length)] } function e() { return String.fromCharCode(94 * Math.random() + 33) } function n(r) { fo","cover":"https://s1.ax1x.com/2022/05/20/OOIVqx.png","updated":"","description":"var chakhsu = function (r) { function t() { return b[Math.floor(Math.random() * b.length)] } function e() { return String.fromCharCode(94 * Math.random() + 33) } function n(r) { fo"}},{"slug":"1879f8e5","data":{"title":"html","date":"2021-06-22 18:06:41","updated":"2021-06-22 18:06:41","slug":"1879f8e5","tags":["html"],"summary":"var chakhsu = function (r) { function t() { return b[Math.floor(Math.random() * b.length)] } function e() { return String.fromCharCode(94 * Math.random() + 33) } function n(r) { fo","cover":"/legacy/img/11.png","description":"var chakhsu = function (r) { function t() { return b[Math.floor(Math.random() * b.length)] } function e() { return String.fromCharCode(94 * Math.random() + 33) } function n(r) { fo"}},{"slug":"ac5292c2","data":{"title":"me","date":"2021-06-22 17:19:00","slug":"ac5292c2","tags":["me"],"summary":"·叫 freelaeder，不胖不宅。 ·性别男，喜欢喝椰子，(感觉不喝椰子的人，长不高，真的！)","cover":"https://s1.ax1x.com/2022/05/20/OO5Z4g.png","updated":"","description":"·叫 freelaeder，不胖不宅。 ·性别男，喜欢喝椰子，(感觉不喝椰子的人，长不高，真的！)"}}],"total":135,"hasMore":false,"nextOffset":135,"page":17,"totalPages":17}