{"posts":[{"slug":"ac5292c2","data":{"title":"me","date":"2021-06-22 17:19:00","slug":"ac5292c2","tags":["me"],"summary":"·叫 freelaeder，不胖不宅。 ·性别男，喜欢喝椰子，(感觉不喝椰子的人，长不高，真的！)","cover":"https://s1.ax1x.com/2022/05/20/OO5Z4g.png","updated":"","description":"·叫 freelaeder，不胖不宅。 ·性别男，喜欢喝椰子，(感觉不喝椰子的人，长不高，真的！)"}}],"total":137,"hasMore":false,"nextOffset":137,"page":18,"totalPages":18}