{"posts":[{"slug":"200c73a6","data":{"title":"Claude Code 手册拆读 23：Agent Teams 协作","date":"2026-02-22 23:19:00","slug":"200c73a6","tags":["Claude Code","最佳实践","多 Agent 协作"],"summary":"通过多 Agent 流水线和网状协作，把复杂任务拆成可验证、可传递的中间产物。","updated":"","description":"通过多 Agent 流水线和网状协作，把复杂任务拆成可验证、可传递的中间产物。","cover":""}},{"slug":"59d4f3a9","data":{"title":"Claude Code 手册拆读 22：并行任务设计模式","date":"2026-02-21 11:30:00","slug":"59d4f3a9","tags":["Claude Code","最佳实践","多 Agent 协作"],"summary":"学会什么时候并行、怎么拆分任务、如何聚合结果，避免并发带来新的混乱。","updated":"","description":"学会什么时候并行、怎么拆分任务、如何聚合结果，避免并发带来新的混乱。","cover":""}},{"slug":"e5abb91e","data":{"title":"Claude Code 手册拆读 21：Sub-agents 架构","date":"2026-02-18 02:00:00","slug":"e5abb91e","tags":["Claude Code","最佳实践","多 Agent 协作"],"summary":"认识子代理的独立上下文、独立权限与摘要返回机制，避免主会话被噪音淹没。","updated":"","description":"认识子代理的独立上下文、独立权限与摘要返回机制，避免主会话被噪音淹没。","cover":""}},{"slug":"7eba19c7","data":{"title":"Claude Code 手册拆读 20：打造个人技能库","date":"2026-02-13 21:15:00","slug":"7eba19c7","tags":["Claude Code","最佳实践","命令与 Skills 系统"],"summary":"建立自己的 Skill 资产库，把重复劳动逐步沉淀成长期复用的工作流组件。","updated":"","description":"建立自己的 Skill 资产库，把重复劳动逐步沉淀成长期复用的工作流组件。","cover":""}},{"slug":"19145ca8","data":{"title":"Claude Code 手册拆读 19：Skills 系统全解","date":"2026-02-11 15:05:00","slug":"19145ca8","tags":["Claude Code","最佳实践","命令与 Skills 系统"],"summary":"理解 Skill 的 frontmatter、触发机制、资源组织和调用方式，掌握可扩展性的核心。","updated":"","description":"理解 Skill 的 frontmatter、触发机制、资源组织和调用方式，掌握可扩展性的核心。","cover":""}},{"slug":"de3163c8","data":{"title":"Claude Code 手册拆读 18：自定义命令实战","date":"2026-02-10 06:26:00","slug":"de3163c8","tags":["Claude Code","最佳实践","命令与 Skills 系统"],"summary":"把常做的操作封装成斜杠命令或 Skill，让高频动作从“会做”变成“一键复用”。","updated":"","description":"把常做的操作封装成斜杠命令或 Skill，让高频动作从“会做”变成“一键复用”。","cover":""}},{"slug":"77b3090e","data":{"title":"Claude Code 手册拆读 17：斜杠命令速查手册","date":"2026-02-05 22:56:00","slug":"77b3090e","tags":["Claude Code","最佳实践","命令与 Skills 系统"],"summary":"快速建立命令心智图，知道哪些命令负责会话、上下文、模型、工具和系统状态。","updated":"","description":"快速建立命令心智图，知道哪些命令负责会话、上下文、模型、工具和系统状态。","cover":""}},{"slug":"cdda179b","data":{"title":"Claude Code 手册拆读 16：MCP Server 集成","date":"2026-02-04 15:13:00","slug":"cdda179b","tags":["Claude Code","最佳实践","Hooks 自动化"],"summary":"让 Claude Code 安全地连接外部系统，在本地代码之外获得结构化能力扩展。","updated":"","description":"让 Claude Code 安全地连接外部系统，在本地代码之外获得结构化能力扩展。","cover":""}}],"total":135,"hasMore":true,"nextOffset":16,"page":2,"totalPages":17}