{"posts":[{"slug":"698c2764","data":{"title":"Claude Code 手册拆读 15：实用 Hook 案例集","date":"2026-01-31 06:21:00","slug":"698c2764","tags":["Claude Code","最佳实践","Hooks 自动化"],"summary":"用可直接套用的 Hook 场景，把质量门禁、日志、通知和规范检查自动化。","updated":"","description":"用可直接套用的 Hook 场景，把质量门禁、日志、通知和规范检查自动化。","cover":""}},{"slug":"db5aaf9f","data":{"title":"Claude Code 手册拆读 14：Hooks 自动化系统","date":"2026-01-27 20:28:00","slug":"db5aaf9f","tags":["Claude Code","最佳实践","Hooks 自动化"],"summary":"把 Claude Code 生命周期变成可编排的自动化节点，接入审计、校验、通知与守护逻辑。","updated":"","description":"把 Claude Code 生命周期变成可编排的自动化节点，接入审计、校验、通知与守护逻辑。","cover":""}},{"slug":"c3162c20","data":{"title":"Claude Code 手册拆读 13：settings.json 完全配置","date":"2026-01-26 10:53:00","slug":"c3162c20","tags":["Claude Code","最佳实践","项目配置体系"],"summary":"系统掌握模型、权限、Hooks、MCP 与沙盒等运行时配置的组织方式。","updated":"","description":"系统掌握模型、权限、Hooks、MCP 与沙盒等运行时配置的组织方式。","cover":""}},{"slug":"f6656695","data":{"title":"Claude Code 手册拆读 12：记忆系统深度指南","date":"2026-01-23 23:18:00","slug":"f6656695","tags":["Claude Code","最佳实践","项目配置体系"],"summary":"理解 CLAUDE.md、Auto Memory 与项目记忆的分工，避免会话一换就失忆。","updated":"","description":"理解 CLAUDE.md、Auto Memory 与项目记忆的分工，避免会话一换就失忆。","cover":""}},{"slug":"41d1a3e6","data":{"title":"Claude Code 手册拆读 11：CLAUDE.md 项目规范","date":"2026-01-20 18:45:00","slug":"41d1a3e6","tags":["Claude Code","最佳实践","项目配置体系"],"summary":"用项目宪法的方式沉淀长期约束，让新会话快速进入团队协作状态。","updated":"","description":"用项目宪法的方式沉淀长期约束，让新会话快速进入团队协作状态。","cover":""}},{"slug":"6ab432fc","data":{"title":"Claude Code 手册拆读 10：Git 工作流集成","date":"2026-01-16 13:02:00","slug":"6ab432fc","tags":["Claude Code","最佳实践","工作流方法论"],"summary":"让 Claude Code 深度参与提交、PR、review 与分支协作，而不是只生成命令建议。","updated":"","description":"让 Claude Code 深度参与提交、PR、review 与分支协作，而不是只生成命令建议。","cover":""}},{"slug":"729da9f4","data":{"title":"Claude Code 手册拆读 09：代码库导航策略","date":"2026-01-15 10:30:00","slug":"729da9f4","tags":["Claude Code","最佳实践","工作流方法论"],"summary":"通过更节制的搜索与阅读策略，在大型仓库里快速建立问题空间。","updated":"","description":"通过更节制的搜索与阅读策略，在大型仓库里快速建立问题空间。","cover":""}},{"slug":"0211d525","data":{"title":"Claude Code 手册拆读 08：Prompt 工程精要","date":"2026-01-13 02:05:00","slug":"0211d525","tags":["Claude Code","最佳实践","工作流方法论"],"summary":"把 prompt 写成任务规格说明书，减少歧义、降低上下文浪费、提升一次成功率。","updated":"","description":"把 prompt 写成任务规格说明书，减少歧义、降低上下文浪费、提升一次成功率。","cover":""}}],"total":137,"hasMore":true,"nextOffset":24,"page":3,"totalPages":18}