{"posts":[{"slug":"5c47bd32","data":{"title":"Claude Code 手册拆读 07：四阶段工作法","date":"2026-01-11 14:33:00","slug":"5c47bd32","tags":["Claude Code","最佳实践","工作流方法论"],"summary":"把探索、规划、实现、提交拆开，形成适合 Claude Code 的高成功率执行节奏。","updated":"","description":"把探索、规划、实现、提交拆开，形成适合 Claude Code 的高成功率执行节奏。","cover":""}},{"slug":"74098c81","data":{"title":"Claude Code 手册拆读 06：上下文管理实战","date":"2026-01-07 05:45:00","slug":"74098c81","tags":["Claude Code","最佳实践","六大工具精通"],"summary":"学会识别 token 消耗来源，并用 compact、clear、rewind 与子代理隔离上下文污染。","updated":"","description":"学会识别 token 消耗来源，并用 compact、clear、rewind 与子代理隔离上下文污染。","cover":""}},{"slug":"25aac99f","data":{"title":"Claude Code 手册拆读 05：工具组合工作流","date":"2026-01-02 23:07:00","slug":"25aac99f","tags":["Claude Code","最佳实践","六大工具精通"],"summary":"用“导航-搜索-阅读-编辑-验证”的经典链路组织 Bug 修复、重构和新功能开发。","updated":"","description":"用“导航-搜索-阅读-编辑-验证”的经典链路组织 Bug 修复、重构和新功能开发。","cover":""}},{"slug":"a089ee1f","data":{"title":"Claude Code 手册拆读 04：六大工具精通","date":"2025-12-31 13:28:00","slug":"a089ee1f","tags":["Claude Code","最佳实践","六大工具精通"],"summary":"把 Read、Write、Edit、Bash、Glob、Grep 六个核心工具放进正确的决策框架里。","updated":"","description":"把 Read、Write、Edit、Bash、Glob、Grep 六个核心工具放进正确的决策框架里。","cover":""}},{"slug":"66be0282","data":{"title":"Claude Code 手册拆读 03：三种权限模式","date":"2025-12-28 03:00:00","slug":"66be0282","tags":["Claude Code","最佳实践","认识 Claude Code"],"summary":"讲清 Normal、Auto-Accept、Plan 三种模式各自适用的风险边界和使用场景。","updated":"","description":"讲清 Normal、Auto-Accept、Plan 三种模式各自适用的风险边界和使用场景。","cover":""}},{"slug":"7022ba9f","data":{"title":"Claude Code 手册拆读 02：核心能力全景","date":"2025-12-24 00:29:00","slug":"7022ba9f","tags":["Claude Code","最佳实践","认识 Claude Code"],"summary":"从安装、模型、上下文窗口到 MCP 与 Git 集成，建立对整个能力面的宏观认知。","updated":"","description":"从安装、模型、上下文窗口到 MCP 与 Git 集成，建立对整个能力面的宏观认知。","cover":""}},{"slug":"21fabfc9","data":{"title":"Claude Code 手册拆读 01：认识 Claude Code","date":"2025-12-21 18:07:00","slug":"21fabfc9","tags":["Claude Code","最佳实践","认识 Claude Code"],"summary":"理解 Claude Code 的定位、与 Claude.ai 的区别，以及 agentic loop 的基本运行方式。","updated":"","description":"理解 Claude Code 的定位、与 Claude.ai 的区别，以及 agentic loop 的基本运行方式。","cover":""}},{"slug":"c4a7fc3a","data":{"title":"封装无限加载组件-react","date":"2023-05-15 10:31:00","slug":"c4a7fc3a","tags":["react","无限加载组件"],"summary":"封装无限列表加载组件 利用 react-intersection-observer 库中的 inView 布尔值, 元素是否进入可视区,来处理父组件传递的请求方法","cover":"/legacy/img/wallseven/wallseven54.png","updated":"","description":"封装无限列表加载组件 利用 react-intersection-observer 库中的 inView 布尔值, 元素是否进入可视区,来处理父组件传递的请求方法"}}],"total":137,"hasMore":true,"nextOffset":32,"page":4,"totalPages":18}