{"posts":[{"slug":"791e95a0","data":{"title":"频道列表居中","date":"2023-05-10 10:31:00","slug":"791e95a0","tags":["react","频道列表居中","js"],"summary":"首页-频道-滚动效果 目标：创建频道组件并实现滚动效果","cover":"/legacy/img/wallseven/wallseven53.png","updated":"","description":"首页-频道-滚动效果 目标：创建频道组件并实现滚动效果"}},{"slug":"f774ddf","data":{"title":"无感登录之react","date":"2023-05-08 16:31:00","slug":"f774ddf","tags":["react","无感登录","toolkit"],"summary":"目标：实现用户无感知自动登录功能 当用户登录凭据 (token) 失效时使用 refresh_token 置换新的用户登录凭据 (token)。","cover":"/legacy/img/wallseven/wallseven52.png","updated":"","description":"目标：实现用户无感知自动登录功能 当用户登录凭据 (token) 失效时使用 refresh_token 置换新的用户登录凭据 (token)。"}},{"slug":"4311e35c","data":{"title":"项目优化上线","date":"2023-04-11 17:31:00","slug":"4311e35c","tags":["react","上线"],"summary":"目标：能够通过命令对项目进行打包 目标：能够通过工具分析出构建之后的项目文件谁比较大","cover":"/legacy/img/wallseven/wallseven51.png","updated":"","description":"目标：能够通过命令对项目进行打包 目标：能够通过工具分析出构建之后的项目文件谁比较大"}},{"slug":"2b098523","data":{"title":"添加备案信息","date":"2023-04-11 09:31:00","slug":"2b098523","tags":["备案","icp"],"summary":"添加备案信息在 blog 底部 解释说明：前者是公安的备案，后者是注册域名时的备案","cover":"/legacy/img/wallseven/wallseven49.png","updated":"","description":"添加备案信息在 blog 底部 解释说明：前者是公安的备案，后者是注册域名时的备案"}},{"slug":"75b2f6c6","data":{"title":"文章分页按钮功能实现","date":"2023-04-11 09:31:00","slug":"75b2f6c6","tags":["react","分页"],"summary":"文章管理-文章列表分页 目标：实现文章列表分页功能","cover":"/legacy/img/wallseven/wallseven50.png","updated":"","description":"文章管理-文章列表分页 目标：实现文章列表分页功能"}},{"slug":"88d3d46f","data":{"title":"封装复选框组件","date":"2023-04-07 09:31:00","slug":"88d3d46f","tags":["react","ts"],"summary":"> 目标：实现管理员退出登录功能 ① 封装可复用的确认框组件","cover":"/legacy/img/wallseven/wallseven48.png","updated":"","description":"> 目标：实现管理员退出登录功能 ① 封装可复用的确认框组件"}},{"slug":"a9432027","data":{"title":"路由守卫","date":"2023-04-07 08:31:00","slug":"a9432027","tags":["react","ts","router5"],"summary":"目标：通过路由守卫保护后台管理页面 ① 创建路由守卫组件实现路由守卫逻辑","cover":"/legacy/img/wallseven/wallseven47.png","updated":"","description":"目标：通过路由守卫保护后台管理页面 ① 创建路由守卫组件实现路由守卫逻辑"}},{"slug":"12529ae2","data":{"title":"React + TypeScript - 类组件","date":"2023-04-02 15:31:00","slug":"12529ae2","tags":["react","ts"],"summary":"React + TypeScript - 类组件 01. 创建应用","cover":"/legacy/img/wallseven/wallseven45.png","updated":"","description":"React + TypeScript - 类组件 01. 创建应用"}}],"total":137,"hasMore":true,"nextOffset":40,"page":5,"totalPages":18}