{"posts":[{"slug":"8ad35e55","data":{"title":"React + TypeScript - 函数组件","date":"2023-04-02 15:31:00","slug":"8ad35e55","tags":["react","ts"],"summary":"React + TypeScript - 函数组件 01. 创建应用","cover":"/legacy/img/wallseven/wallseven46.png","updated":"","description":"React + TypeScript - 函数组件 01. 创建应用"}},{"slug":"942a5c06","data":{"title":"react+ts规范化项目工程","date":"2023-04-01 11:31:00","slug":"942a5c06","tags":["react","ts","project"],"summary":"规范化创建 react+ts 项目工程 01. 创建应用","cover":"/legacy/img/wallseven/wallseven44.png","updated":"","description":"规范化创建 react+ts 项目工程 01. 创建应用"}},{"slug":"7d76407e","data":{"title":"How do I understand target and currenttarget","date":"2023-04-01 10:31:00","slug":"7d76407e","tags":["chatbox","target","currentTarget"],"summary":"currentTarget 和 target 的区别 event.currentTarget 和 event.target 都是 JavaScript 中处理事件的对象，它们之间的主要区别在于它们所指向的对象不同。","cover":"/legacy/img/wallseven/wallseven43.png","updated":"","description":"currentTarget 和 target 的区别 event.currentTarget 和 event.target 都是 JavaScript 中处理事件的对象，它们之间的主要区别在于它们所指向的对象不同。"}},{"slug":"36044e1a","data":{"title":"Dynamic list","date":"2023-03-27 10:31:00","slug":"36044e1a","tags":["ai","react","chatbox"],"summary":"根据服务器返回的列表数动态渲染列表按钮 要实现这样的功能，您可以使用以下步骤来生成动态列表和按钮：","cover":"https://s1.ax1x.com/2022/05/20/OOImdK.png","updated":"","description":"根据服务器返回的列表数动态渲染列表按钮 要实现这样的功能，您可以使用以下步骤来生成动态列表和按钮："}},{"slug":"7472fc2f","data":{"title":"chatbox使用","date":"2023-03-27 10:31:00","slug":"7472fc2f","tags":["ai","chatbox","chatGPT"],"summary":"github 地址 下载地址-windows","cover":"/legacy/img/wallseven/wallseven42.png","updated":"","description":"github 地址 下载地址-windows"}},{"slug":"77971af0","data":{"title":"ts报错解决持续更新","date":"2022-07-01 09:53:00","slug":"77971af0","tags":["ts报错解决持续更新","typeScript"],"summary":"index.ts:4:3 - error TS2584: Cannot find name ‘console’ Cannot find name ‘console’ 或者没有console就直接没反应","cover":"/legacy/img/wallseven/wallseven26.png","updated":"","description":"index.ts:4:3 - error TS2584: Cannot find name ‘console’ Cannot find name ‘console’ 或者没有console就直接没反应"}},{"slug":"ae4c07b8","data":{"title":"typeScript基础知识","date":"2022-07-01 09:53:00","slug":"ae4c07b8","tags":["typeScript基础知识","typeScript"],"summary":"TypeScript 教程 1. TypeScript 概述","cover":"/legacy/img/wallseven/wallseven27.png","updated":"","description":"TypeScript 教程 1. TypeScript 概述"}},{"slug":"e6437fbd","data":{"title":"uniapp实现返回顶部","date":"2022-06-29 11:53:00","slug":"e6437fbd","tags":["uniapp返回顶部","微信小程序"],"summary":"uniapp返回顶部 官网地址 : https://uniapp.dcloud.io/api/ui/scroll.html#pagescrollto","cover":"/legacy/img/wallseven/wallseven25.png","updated":"","description":"uniapp返回顶部 官网地址 : https://uniapp.dcloud.io/api/ui/scroll.html#pagescrollto"}}],"total":137,"hasMore":true,"nextOffset":48,"page":6,"totalPages":18}