{"posts":[{"slug":"33b9c85e","data":{"title":"hooks使用","date":"2022-06-27 21:53:00","slug":"33b9c85e","tags":["hooks使用","vue3"],"summary":"需求: 鼠标点击获取当前鼠标位置 完整代码vue3+ts","cover":"/legacy/img/wallseven/wallseven24.png","updated":"","description":"需求: 鼠标点击获取当前鼠标位置 完整代码vue3+ts"}},{"slug":"2f8b36fc","data":{"title":"blog个性标签","date":"2022-06-27 15:53:00","slug":"2f8b36fc","tags":["blog个性标签","blog"],"summary":"文章来自: https://akilar.top/posts/615e2dec/ 目的:方便书写自己的文章，需要的话请查看原文","cover":"/legacy/img/wallseven/wallseven23.png","updated":"","description":"文章来自: https://akilar.top/posts/615e2dec/ 目的:方便书写自己的文章，需要的话请查看原文"}},{"slug":"9417ce47","data":{"title":"面试问题集锦","date":"2022-06-27 14:53:00","slug":"9417ce47","tags":["面试","面试问题集锦"],"summary":"请做一下自我介绍 回答提示： 一般人回答这个问题过于平常，只说姓名、年龄、工作经验，这些在简历上都有。其实，企业最希望知道的是求职者能否胜任工作，包括：最强的技能、最深入研究的知识领域、个性中最积极的部分、做过的最成功的事，主要的成就等，要突出积极的个性和做事的能力，说的合情合理企业才会相信。","cover":"/legacy/img/wallseven/wallseven11.png","updated":"","description":"请做一下自我介绍 回答提示： 一般人回答这个问题过于平常，只说姓名、年龄、工作经验，这些在简历上都有。其实，企业最希望知道的是求职者能否胜任工作，包括：最强的技能、最深入研究的知识领域、个性中最积极的部分、做过的最成功的事，主要的成就等，要突出积极的个性和做事的能力，说的合情合理企业才会相信。"}},{"slug":"294b86eb","data":{"title":"proxyEs6","date":"2022-06-27 06:53:00","slug":"294b86eb","tags":["proxyEs6","es6"],"summary":"面试官：你是怎么理解ES6中Proxy的？使用场景? 定义： 用于定义基本操作的自定义行为","cover":"/legacy/img/wallseven/wallseven19.png","updated":"","description":"面试官：你是怎么理解ES6中Proxy的？使用场景? 定义： 用于定义基本操作的自定义行为"}},{"slug":"336f0513","data":{"title":"decorator","date":"2022-06-27 06:53:00","slug":"336f0513","tags":["decorator","es6"],"summary":"面试官：你是怎么理解ES6中 Decorator 的？使用场景？ Decorator，即装饰器，从名字上很容易让我们联想到装饰者模式","cover":"/legacy/img/wallseven/wallseven13.png","updated":"","description":"面试官：你是怎么理解ES6中 Decorator 的？使用场景？ Decorator，即装饰器，从名字上很容易让我们联想到装饰者模式"}},{"slug":"9b0c2390","data":{"title":"promise","date":"2022-06-27 06:53:00","slug":"9b0c2390","tags":["promise","es6"],"summary":"面试官：你是怎么理解ES6中 Promise的？使用场景？ Promise ，译为承诺，是异步编程的一种解决方案，比传统的解决方案（回调函数）更加合理和更加强大","cover":"/legacy/img/wallseven/wallseven18.png","updated":"","description":"面试官：你是怎么理解ES6中 Promise的？使用场景？ Promise ，译为承诺，是异步编程的一种解决方案，比传统的解决方案（回调函数）更加合理和更加强大"}},{"slug":"9f1ed84","data":{"title":"反问面试","date":"2022-06-27 06:53:00","slug":"9f1ed84","tags":["面试","反问面试"],"summary":"检查一下哪些问题你感兴趣 检查一下哪些是你可以自己在网上找到答案的","cover":"/legacy/img/wallseven/wallseven12.png","updated":"","description":"检查一下哪些问题你感兴趣 检查一下哪些是你可以自己在网上找到答案的"}},{"slug":"a8adabec","data":{"title":"object","date":"2022-06-27 06:53:00","slug":"a8adabec","tags":["object","es6"],"summary":"面试官：对象新增了哪些扩展？ ES6中，当对象键名与对应值名相等的时候，可以进行简写","cover":"/legacy/img/wallseven/wallseven17.png","updated":"","description":"面试官：对象新增了哪些扩展？ ES6中，当对象键名与对应值名相等的时候，可以进行简写"}}],"total":135,"hasMore":true,"nextOffset":56,"page":7,"totalPages":17}