{"posts":[{"slug":"c242628","data":{"title":"module","date":"2022-06-27 06:53:00","slug":"c242628","tags":["module","es6"],"summary":"面试官：你是怎么理解ES6中Module的？使用场景？ 模块，（Module），是能够单独命名并独立地完成一定功能的程序语句的 集合（即程序代码和数据结构的集合体） 。","cover":"/legacy/img/wallseven/wallseven16.png","updated":"","description":"面试官：你是怎么理解ES6中Module的？使用场景？ 模块，（Module），是能够单独命名并独立地完成一定功能的程序语句的 集合（即程序代码和数据结构的集合体） 。"}},{"slug":"caae163d","data":{"title":"function","date":"2022-06-27 06:53:00","slug":"caae163d","tags":["function","es6"],"summary":"面试官：对象新增了哪些扩展？ ES6 允许为函数的参数设置默认值","cover":"/legacy/img/wallseven/wallseven14.png","updated":"","description":"面试官：对象新增了哪些扩展？ ES6 允许为函数的参数设置默认值"}},{"slug":"caae7b70","data":{"title":"generator","date":"2022-06-27 06:53:00","slug":"caae7b70","tags":["generator","es6"],"summary":"面试官：你是怎么理解ES6中 Generator的？使用场景？ Generator 函数是 ES6 提供的一种异步编程解决方案，语法行为与传统函数完全不同","cover":"/legacy/img/wallseven/wallseven15.png","updated":"","description":"面试官：你是怎么理解ES6中 Generator的？使用场景？ Generator 函数是 ES6 提供的一种异步编程解决方案，语法行为与传统函数完全不同"}},{"slug":"cf2f5248","data":{"title":"如何设置文章置顶","date":"2022-06-27 06:53:00","slug":"cf2f5248","tags":["如何设置文章置顶","blog"],"summary":"找到node_modules/hexo-generator-index/lib/generator.js这个文件。 ok + 完整代码","cover":"/legacy/img/wallseven/wallseven22.png","updated":"","description":"找到node_modules/hexo-generator-index/lib/generator.js这个文件。 ok + 完整代码"}},{"slug":"eb05a173","data":{"title":"var_let_const","date":"2022-06-27 06:53:00","slug":"eb05a173","tags":["var_let_const","es6"],"summary":"面试官：说说var、let、const之间的区别 在ES5中，顶层对象的属性和全局变量是等价的，用 var 声明的变量既是全局变量，也是顶层变量","cover":"/legacy/img/wallseven/wallseven20.png","updated":"","description":"面试官：说说var、let、const之间的区别 在ES5中，顶层对象的属性和全局变量是等价的，用 var 声明的变量既是全局变量，也是顶层变量"}},{"slug":"set_map","data":{"title":"set_map","date":"2022-06-27 06:53:00","slug":"set_map","tags":["set_map","es6"],"summary":"面试官：你是怎么理解ES6新增Set、Map两种数据结构的？ 如果要用一句来描述，我们可以说","cover":"/legacy/img/wallseven/wallseven20.png","updated":"","description":"面试官：你是怎么理解ES6新增Set、Map两种数据结构的？ 如果要用一句来描述，我们可以说"}},{"slug":"dc3acdcc","data":{"title":"JavaScript面试基础理论","date":"2022-06-24 22:53:00","slug":"dc3acdcc","tags":["js","JavaScript面试基础理论"],"summary":"JavaScript面试基础理论 new操作的实现过程","cover":"/legacy/img/wallseven/wallseven10.png","updated":"","description":"JavaScript面试基础理论 new操作的实现过程"}},{"slug":"39a5927a","data":{"title":"gametime","date":"2022-06-17 22:53:00","slug":"39a5927a","tags":["fine","gametime"],"summary":"一分半高亮操作   这个  不要笑。     就这  就这。","cover":"/legacy/img/wallseven/wallseven9.png","updated":"","description":"一分半高亮操作   这个  不要笑。     就这  就这。"}}],"total":137,"hasMore":true,"nextOffset":64,"page":8,"totalPages":18}