{"posts":[{"slug":"82d79681","data":{"title":"proxy","date":"2022-06-17 22:53:00","slug":"82d79681","tags":["vue3","proxy"],"summary":"面试官：Vue3.0里为什么要用 Proxy API 替代 defineProperty API ？ 一、Object.defineProperty","cover":"/legacy/img/wallseven/wallseven8.png","updated":"","description":"面试官：Vue3.0里为什么要用 Proxy API 替代 defineProperty API ？ 一、Object.defineProperty"}},{"slug":"performance","data":{"title":"performance","date":"2022-06-17 22:53:00","slug":"performance","tags":["vue3","performance"],"summary":"面试官：Vue3.0性能提升主要是通过哪几方面体现的？ 回顾 Vue2 ，我们知道每个组件实例都对应一个 watcher 实例，它会在组件渲染的过程中把用到的数据 property 记录为依赖，当依赖发生改变，触发 setter ，则会通知 watcher ，从而使关联的组件重新渲染","cover":"/legacy/img/wallseven/wallseven7.png","updated":"","description":"面试官：Vue3.0性能提升主要是通过哪几方面体现的？ 回顾 Vue2 ，我们知道每个组件实例都对应一个 watcher 实例，它会在组件渲染的过程中把用到的数据 property 记录为依赖，当依赖发生改变，触发 setter ，则会通知 watcher ，从而使关联的组件重新渲染"}},{"slug":"7331f3bb","data":{"title":"modal_component","date":"2022-06-17 22:33:00","slug":"7331f3bb","tags":["vue3","modal_component"],"summary":"面试官：用Vue3.0 写过组件吗？如果想实现一个 Modal你会怎么设计？ 组件就是把图形、非图形的各种逻辑均抽象为一个统一的概念（组件）来实现开发的模式","cover":"/legacy/img/wallseven/wallseven6.png","updated":"","description":"面试官：用Vue3.0 写过组件吗？如果想实现一个 Modal你会怎么设计？ 组件就是把图形、非图形的各种逻辑均抽象为一个统一的概念（组件）来实现开发的模式"}},{"slug":"c7f4347","data":{"title":"composition","date":"2022-06-17 21:33:00","slug":"c7f4347","tags":["vue3","composition"],"summary":"面试官：Vue3.0 所采用的 Composition Api 与 Vue2.x 使用的 Options Api 有什么不同？ Composition API 可以说是 Vue3 的最大特点，那么为什么要推出 Composition Api ，解决了什么问题？","cover":"/legacy/img/wallseven/wallseven5.png","updated":"","description":"面试官：Vue3.0 所采用的 Composition Api 与 Vue2.x 使用的 Options Api 有什么不同？ Composition API 可以说是 Vue3 的最大特点，那么为什么要推出 Composition Api ，解决了什么问题？"}},{"slug":"47c3840f","data":{"title":"treeshaking","date":"2022-06-17 17:33:00","slug":"47c3840f","tags":["vue3","treeshaking"],"summary":"面试官：说说Vue 3.0中Treeshaking特性？举例说明一下？ Tree shaking 是一种通过清除多余代码方式来优化项目打包体积的技术，专业术语叫 Dead code elimination","cover":"/legacy/img/wallseven/wallseven3.png","updated":"","description":"面试官：说说Vue 3.0中Treeshaking特性？举例说明一下？ Tree shaking 是一种通过清除多余代码方式来优化项目打包体积的技术，专业术语叫 Dead code elimination"}},{"slug":"f1d0391c","data":{"title":"my-carousel","date":"2022-06-17 17:33:00","slug":"f1d0391c","tags":["fine","my-carousel"],"summary":"my -carousel 啊哈，我是不会告诉你切换黑夜模式有惊喜的，你咬我呀","cover":"/legacy/img/wallseven/wallseven4.png","updated":"","description":"my -carousel 啊哈，我是不会告诉你切换黑夜模式有惊喜的，你咬我呀"}},{"slug":"b51bdcfa","data":{"title":"vue项目部署","date":"2022-06-17 07:33:00","slug":"b51bdcfa","tags":["vue3","vue项目部署"],"summary":"服务器&#x20; 完整的vue项目","cover":"/legacy/img/wallseven/wallseven2.png","updated":"","description":"服务器&#x20; 完整的vue项目"}},{"slug":"fcdceb2e","data":{"title":"goal","date":"2022-06-17 05:33:00","slug":"fcdceb2e","tags":["vue3","goal"],"summary":"面试官：Vue3.0的设计目标是什么？做了哪些优化 不以解决实际业务痛点的更新都是耍流氓，下面我们来列举一下 Vue3 之前我们或许会面临的问题","cover":"/legacy/img/wallseven/wallseven1.png","updated":"","description":"面试官：Vue3.0的设计目标是什么？做了哪些优化 不以解决实际业务痛点的更新都是耍流氓，下面我们来列举一下 Vue3 之前我们或许会面临的问题"}}],"total":135,"hasMore":true,"nextOffset":72,"page":9,"totalPages":17}